[gd_scene load_steps=2 format=2]

[ext_resource path="res://addons/godot-git-control/scripts/controls/commit_message_dialog.gd" type="Script" id=1]

[node name="commit_message_dialog" type="ConfirmationDialog" index="0"]

anchor_left = 0.0
anchor_top = 0.0
anchor_right = 0.0
anchor_bottom = 0.0
margin_right = 549.0
margin_bottom = 245.0
rect_min_size = Vector2( 200, 70 )
rect_pivot_offset = Vector2( 0, 0 )
mouse_filter = 0
mouse_default_cursor_shape = 0
size_flags_horizontal = 2
size_flags_vertical = 2
popup_exclusive = true
window_title = "Commit"
resizable = false
dialog_text = "Commit Message"
dialog_hide_on_ok = true
script = ExtResource( 1 )

[node name="commit_message" type="VBoxContainer" parent="." index="3"]

anchor_left = 0.0
anchor_top = 0.0
anchor_right = 1.0
anchor_bottom = 1.0
margin_left = 8.0
margin_top = 22.0
margin_right = -8.0
margin_bottom = -36.0
rect_pivot_offset = Vector2( 0, 0 )
mouse_filter = 1
mouse_default_cursor_shape = 0
size_flags_horizontal = 3
size_flags_vertical = 2
alignment = 0
_sections_unfolded = [ "Size Flags" ]

[node name="input" type="TextEdit" parent="commit_message" index="0"]

anchor_left = 0.0
anchor_top = 0.0
anchor_right = 0.0
anchor_bottom = 0.0
margin_right = 533.0
margin_bottom = 187.0
rect_pivot_offset = Vector2( 0, 0 )
focus_mode = 2
mouse_filter = 0
mouse_default_cursor_shape = 0
size_flags_horizontal = 3
size_flags_vertical = 3
custom_colors/current_line_color = Color( 0.172549, 0.164706, 0.196078, 1 )
text = ""
readonly = false
highlight_current_line = false
syntax_highlighting = false
show_line_numbers = false
highlight_all_occurrences = false
override_selected_font_color = false
context_menu_enabled = true
smooth_scrolling = false
v_scroll_speed = 80.0
hiding_enabled = 0
wrap_lines = false
caret_block_mode = false
caret_blink = false
caret_blink_speed = 0.65
caret_moving_by_right_click = true
_sections_unfolded = [ "Size Flags" ]


