[gd_scene load_steps=2 format=2]

[ext_resource path="res://addons/godot-git-control/scripts/controls/create_branch_dialog.gd" type="Script" id=1]

[node name="create_branch_dialog" type="ConfirmationDialog" index="0"]

anchor_left = 0.0
anchor_top = 0.0
anchor_right = 0.0
anchor_bottom = 0.0
margin_right = 472.0
margin_bottom = 175.0
rect_min_size = Vector2( 200, 70 )
rect_pivot_offset = Vector2( 0, 0 )
mouse_filter = 0
mouse_default_cursor_shape = 0
size_flags_horizontal = 2
size_flags_vertical = 2
popup_exclusive = true
window_title = "Create a new Branch"
resizable = false
dialog_hide_on_ok = true
script = ExtResource( 1 )

[node name="container" type="VBoxContainer" parent="." index="3"]

anchor_left = 0.0
anchor_top = 0.0
anchor_right = 1.0
anchor_bottom = 1.0
margin_left = 8.0
margin_top = 8.0
margin_right = -8.0
margin_bottom = -36.0
rect_pivot_offset = Vector2( 0, 0 )
mouse_filter = 1
mouse_default_cursor_shape = 0
size_flags_horizontal = 2
size_flags_vertical = 2
custom_constants/separation = 10
alignment = 0

[node name="current_branch" type="VBoxContainer" parent="container" index="0"]

anchor_left = 0.0
anchor_top = 0.0
anchor_right = 0.0
anchor_bottom = 0.0
margin_right = 456.0
margin_bottom = 42.0
rect_pivot_offset = Vector2( 0, 0 )
mouse_filter = 1
mouse_default_cursor_shape = 0
size_flags_horizontal = 1
size_flags_vertical = 1
alignment = 0
_sections_unfolded = [ "Size Flags" ]

[node name="label" type="Label" parent="container/current_branch" index="0"]

anchor_left = 0.0
anchor_top = 0.0
anchor_right = 0.0
anchor_bottom = 0.0
margin_right = 95.0
margin_bottom = 14.0
rect_pivot_offset = Vector2( 0, 0 )
mouse_filter = 2
mouse_default_cursor_shape = 0
size_flags_horizontal = 2
size_flags_vertical = 0
text = "Current Branch"
percent_visible = 1.0
lines_skipped = 0
max_lines_visible = -1

[node name="input" type="LineEdit" parent="container/current_branch" index="1"]

anchor_left = 0.0
anchor_top = 0.0
anchor_right = 0.0
anchor_bottom = 0.0
margin_top = 18.0
margin_right = 456.0
margin_bottom = 42.0
rect_pivot_offset = Vector2( 0, 0 )
focus_mode = 2
mouse_filter = 0
mouse_default_cursor_shape = 1
size_flags_horizontal = 3
size_flags_vertical = 2
editable = false
focus_mode = 2
context_menu_enabled = true
placeholder_alpha = 0.6
caret_blink = false
caret_blink_speed = 0.65
caret_position = 0
_sections_unfolded = [ "Size Flags" ]

[node name="new_branch" type="VBoxContainer" parent="container" index="1"]

anchor_left = 0.0
anchor_top = 0.0
anchor_right = 0.0
anchor_bottom = 0.0
margin_top = 52.0
margin_right = 456.0
margin_bottom = 112.0
rect_pivot_offset = Vector2( 0, 0 )
mouse_filter = 1
mouse_default_cursor_shape = 0
size_flags_horizontal = 1
size_flags_vertical = 1
alignment = 0
_sections_unfolded = [ "Size Flags" ]

[node name="label" type="Label" parent="container/new_branch" index="0"]

anchor_left = 0.0
anchor_top = 0.0
anchor_right = 0.0
anchor_bottom = 0.0
margin_right = 84.0
margin_bottom = 14.0
rect_pivot_offset = Vector2( 0, 0 )
mouse_filter = 2
mouse_default_cursor_shape = 0
size_flags_horizontal = 2
size_flags_vertical = 0
text = "Branch name"
percent_visible = 1.0
lines_skipped = 0
max_lines_visible = -1

[node name="input" type="LineEdit" parent="container/new_branch" index="1"]

anchor_left = 0.0
anchor_top = 0.0
anchor_right = 0.0
anchor_bottom = 0.0
margin_top = 18.0
margin_right = 456.0
margin_bottom = 42.0
rect_pivot_offset = Vector2( 0, 0 )
focus_mode = 2
mouse_filter = 0
mouse_default_cursor_shape = 1
size_flags_horizontal = 3
size_flags_vertical = 1
focus_mode = 2
context_menu_enabled = true
placeholder_alpha = 0.6
caret_blink = false
caret_blink_speed = 0.65
caret_position = 0
_sections_unfolded = [ "Size Flags" ]

[node name="error_label" type="Label" parent="container/new_branch" index="2"]

anchor_left = 0.0
anchor_top = 0.0
anchor_right = 0.0
anchor_bottom = 0.0
margin_top = 46.0
margin_right = 31.0
margin_bottom = 60.0
rect_pivot_offset = Vector2( 0, 0 )
mouse_filter = 2
mouse_default_cursor_shape = 0
size_flags_horizontal = 2
size_flags_vertical = 0
custom_colors/font_color = Color( 0.980469, 0.360016, 0.360016, 1 )
text = "error"
percent_visible = 1.0
lines_skipped = 0
max_lines_visible = -1


